<svg width="306" height="264" viewBox="0 0 306 264" fill="none" xmlns="http://www.w3.org/2000/svg">
<path d="M210.934 20.9515H248.994V34.5477H231.669L224.439 41.8232V34.5477H210.934V20.9515Z" fill="#F5B900"/>
<path d="M156.504 33.6385C154.867 33.593 153.366 32.6381 152.729 31.0466C152.502 30.4554 152.457 29.8643 152.457 29.2731C152.457 27.9999 152.457 26.7267 152.457 25.408C152.457 21.3155 152.457 17.223 152.457 13.1305C152.457 11.9483 152.457 10.766 152.457 9.58371C152.457 7.31011 154.139 5.40028 156.504 5.35481C158.368 5.30933 160.187 5.35481 162.051 5.35481C166.007 5.35481 170.009 5.35481 173.965 5.35481C178.103 5.35481 182.241 5.35481 186.333 5.35481C188.698 5.35481 191.062 5.35481 193.427 5.35481C195.428 5.35481 197.247 6.53708 197.656 8.58333C197.838 9.49277 197.747 10.5386 197.747 11.4481C197.747 15.4496 197.747 19.4057 197.747 23.4072C197.747 25.0442 197.747 26.7267 197.747 28.3637C197.747 29.8188 197.747 31.183 196.656 32.3198C195.701 33.3202 194.473 33.593 193.154 33.593C193.063 33.593 192.972 33.6839 192.972 33.7749C192.972 35.7302 192.972 37.64 192.972 39.5953C193.109 39.5498 193.2 39.5044 193.336 39.4589C191.199 37.64 189.016 35.8666 186.879 34.0477C186.697 33.9113 186.47 33.6385 186.242 33.593C186.106 33.5475 185.924 33.593 185.833 33.593C184.969 33.593 184.06 33.593 183.196 33.593C179.922 33.593 176.648 33.593 173.374 33.593C169.782 33.593 166.144 33.593 162.551 33.593C161.233 33.593 159.914 33.593 158.595 33.593C157.959 33.593 157.277 33.5021 156.64 33.593C156.595 33.6385 156.549 33.6385 156.504 33.6385C156.231 33.6385 156.231 34.0477 156.504 34.0477C161.597 34.0477 166.689 34.0477 171.782 34.0477C175.193 34.0477 178.603 34.0477 182.059 34.0477C183.15 34.0477 184.196 34.0477 185.288 34.0477C185.56 34.0477 185.833 34.0932 186.106 34.0477C186.151 34.0477 186.197 34.0477 186.288 34.0477C186.197 34.0477 186.151 33.9113 186.242 34.0477C186.606 34.5024 187.197 34.8662 187.652 35.23C188.425 35.8666 189.198 36.5032 189.971 37.1853C191.017 38.0493 192.063 38.9132 193.109 39.8227C193.245 39.9136 193.472 39.8681 193.472 39.6863C193.472 37.731 193.472 35.8211 193.472 33.8658C193.427 33.9568 193.336 34.0022 193.245 34.0477C194.473 34.0477 195.61 33.8658 196.61 33.0473C197.656 32.1834 198.202 30.9556 198.247 29.5914C198.247 28.6365 198.247 27.7271 198.247 26.7722C198.247 22.5433 198.247 18.3144 198.247 14.0855C198.247 12.6758 198.247 11.2207 198.247 9.81107C198.247 9.35635 198.247 8.90163 198.156 8.44691C197.883 7.08275 196.928 5.90047 195.655 5.30933C194.746 4.90009 193.836 4.90009 192.881 4.90009C191.699 4.90009 190.471 4.90009 189.289 4.90009C185.288 4.90009 181.286 4.90009 177.284 4.90009C172.965 4.90009 168.599 4.90009 164.279 4.90009C161.778 4.90009 159.323 4.90009 156.822 4.90009C155.003 4.90009 153.321 5.80953 152.502 7.492C152.002 8.58333 152.093 9.7656 152.093 10.9479C152.093 14.9949 152.093 19.0874 152.093 23.1344C152.093 24.8623 152.093 26.5903 152.093 28.3182C152.093 29.6824 152.093 31.0011 153.002 32.1834C153.866 33.3202 155.14 33.9113 156.549 33.9568C156.777 34.0477 156.777 33.6385 156.504 33.6385Z" fill="#192244"/>
<path d="M162.278 27.181C164.961 27.181 167.69 27.181 170.372 27.181C174.647 27.181 178.921 27.181 183.196 27.181C184.196 27.181 185.151 27.181 186.151 27.181C186.424 27.181 186.424 26.7718 186.151 26.7718C183.468 26.7718 180.74 26.7718 178.057 26.7718C173.783 26.7718 169.508 26.7718 165.234 26.7718C164.234 26.7718 163.279 26.7718 162.278 26.7718C162.006 26.7718 162.006 27.181 162.278 27.181Z" fill="#192244"/>
<path d="M162.369 20.133C165.052 20.133 167.781 20.133 170.463 20.133C174.738 20.133 179.012 20.133 183.287 20.133C184.287 20.133 185.242 20.133 186.242 20.133C186.515 20.133 186.515 19.7238 186.242 19.7238C183.559 19.7238 180.831 19.7238 178.148 19.7238C173.874 19.7238 169.599 19.7238 165.325 19.7238C164.325 19.7238 163.37 19.7238 162.369 19.7238C162.097 19.7238 162.097 20.133 162.369 20.133Z" fill="#192244"/>
<path d="M162.46 13.085C165.143 13.085 167.872 13.085 170.554 13.085C174.829 13.085 179.103 13.085 183.377 13.085C184.378 13.085 185.333 13.085 186.333 13.085C186.606 13.085 186.606 12.6757 186.333 12.6757C183.65 12.6757 180.922 12.6757 178.239 12.6757C173.965 12.6757 169.69 12.6757 165.416 12.6757C164.416 12.6757 163.461 12.6757 162.46 12.6757C162.233 12.6757 162.233 13.085 162.46 13.085Z" fill="#192244"/>
<g opacity="0.6">
<path opacity="0.6" d="M269.411 62.3303H150.82V137.632H269.411V62.3303Z" fill="url(#paint0_linear)"/>
<g opacity="0.6">
<path opacity="0.6" d="M269.456 136.951C268.411 136.951 267.319 136.951 266.273 136.951C263.409 136.951 260.544 136.951 257.679 136.951C253.405 136.951 249.176 136.951 244.901 136.951C239.718 136.951 234.534 136.951 229.304 136.951C223.62 136.951 217.982 136.951 212.298 136.951C206.523 136.951 200.793 136.951 195.019 136.951C189.698 136.951 184.333 136.951 179.012 136.951C174.465 136.951 169.963 136.951 165.416 136.951C162.142 136.951 158.914 136.951 155.64 136.951C154.094 136.951 152.548 136.86 151.047 136.951C151.002 136.951 150.911 136.951 150.865 136.951C151.092 137.178 151.32 137.406 151.547 137.633C151.547 135.132 151.547 132.631 151.547 130.13C151.547 124.128 151.547 118.126 151.547 112.169C151.547 104.939 151.547 97.6632 151.547 90.4331C151.547 84.158 151.547 77.8828 151.547 71.6077C151.547 69.5614 151.547 67.4697 151.547 65.4235C151.547 64.4686 151.638 63.4227 151.547 62.4678C151.547 62.4223 151.547 62.3769 151.547 62.3314C151.32 62.5587 151.092 62.7861 150.865 63.0135C151.911 63.0135 153.002 63.0135 154.048 63.0135C156.913 63.0135 159.778 63.0135 162.642 63.0135C166.917 63.0135 171.146 63.0135 175.42 63.0135C180.604 63.0135 185.788 63.0135 191.017 63.0135C196.701 63.0135 202.34 63.0135 208.024 63.0135C213.798 63.0135 219.528 63.0135 225.303 63.0135C230.623 63.0135 235.989 63.0135 241.309 63.0135C245.856 63.0135 250.358 63.0135 254.905 63.0135C258.179 63.0135 261.408 63.0135 264.682 63.0135C266.228 63.0135 267.774 63.1044 269.274 63.0135C269.32 63.0135 269.411 63.0135 269.456 63.0135C269.229 62.7861 269.002 62.5587 268.774 62.3314C268.774 64.8323 268.774 67.3333 268.774 69.8343C268.774 75.8366 268.774 81.8389 268.774 87.7958C268.774 95.0258 268.774 102.301 268.774 109.531C268.774 115.807 268.774 122.082 268.774 128.357C268.774 131.403 268.683 134.45 268.774 137.497C268.774 137.542 268.774 137.588 268.774 137.633C268.774 138.497 270.138 138.497 270.138 137.633C270.138 135.132 270.138 132.631 270.138 130.13C270.138 124.128 270.138 118.126 270.138 112.169C270.138 104.939 270.138 97.6632 270.138 90.4331C270.138 84.158 270.138 77.8828 270.138 71.6077C270.138 68.5611 270.229 65.5144 270.138 62.4678C270.138 62.4223 270.138 62.3769 270.138 62.3314C270.138 61.9676 269.82 61.6493 269.456 61.6493C268.411 61.6493 267.319 61.6493 266.273 61.6493C263.409 61.6493 260.544 61.6493 257.679 61.6493C253.405 61.6493 249.176 61.6493 244.901 61.6493C239.718 61.6493 234.534 61.6493 229.304 61.6493C223.62 61.6493 217.982 61.6493 212.298 61.6493C206.523 61.6493 200.793 61.6493 195.019 61.6493C189.698 61.6493 184.333 61.6493 179.012 61.6493C174.465 61.6493 169.963 61.6493 165.416 61.6493C162.142 61.6493 158.914 61.6493 155.64 61.6493C154.094 61.6493 152.548 61.6038 151.047 61.6493C151.002 61.6493 150.911 61.6493 150.865 61.6493C150.501 61.6493 150.183 61.9676 150.183 62.3314C150.183 64.8323 150.183 67.3333 150.183 69.8343C150.183 75.8366 150.183 81.8389 150.183 87.7958C150.183 95.0258 150.183 102.301 150.183 109.531C150.183 115.807 150.183 122.082 150.183 128.357C150.183 131.403 150.092 134.45 150.183 137.497C150.183 137.542 150.183 137.588 150.183 137.633C150.183 137.997 150.501 138.315 150.865 138.315C151.911 138.315 153.002 138.315 154.048 138.315C156.913 138.315 159.778 138.315 162.642 138.315C166.917 138.315 171.146 138.315 175.42 138.315C180.604 138.315 185.788 138.315 191.017 138.315C196.701 138.315 202.34 138.315 208.024 138.315C213.798 138.315 219.528 138.315 225.303 138.315C230.623 138.315 235.989 138.315 241.309 138.315C245.856 138.315 250.358 138.315 254.905 138.315C258.179 138.315 261.408 138.315 264.682 138.315C266.228 138.315 267.774 138.361 269.274 138.315C269.32 138.315 269.411 138.315 269.456 138.315C270.32 138.315 270.32 136.951 269.456 136.951Z" fill="#C2C5D3"/>
</g>
</g>
<path d="M202.567 113.851C202.567 113.851 184.242 113.169 178.194 124.082C178.194 124.082 175.375 128.948 175.375 137.86H246.175C246.175 137.86 249.449 113.76 218.891 113.851" fill="#F5B900"/>
<path d="M218.027 107.076V112.487V113.351C218.027 113.351 222.893 114.988 221.665 121.036C221.665 121.036 220.437 130.63 210.524 130.63C210.524 130.63 199.475 131.04 199.247 118.171C199.247 118.171 199.384 113.806 203.067 112.987V107.94" fill="white"/>
<path d="M217.845 107.075C217.845 109.167 217.845 111.258 217.845 113.35C217.845 113.441 217.891 113.532 217.982 113.532C218.982 113.85 219.892 114.669 220.528 115.487C221.21 116.397 221.574 117.488 221.665 118.579C221.711 119.307 221.665 120.08 221.529 120.807C221.483 121.08 221.483 120.944 221.483 121.126C221.029 123.854 219.573 126.537 217.391 128.219C215.026 130.084 211.798 130.72 208.842 130.266C205.704 129.765 202.84 128.038 201.203 125.264C199.975 123.172 199.384 120.535 199.429 118.125C199.475 116.624 200.157 114.942 201.339 113.987C201.839 113.577 202.43 113.305 203.067 113.168C203.158 113.168 203.203 113.077 203.203 112.986C203.203 111.304 203.203 109.621 203.203 107.939C203.203 107.666 202.794 107.666 202.794 107.939C202.794 109.621 202.794 111.304 202.794 112.986C202.84 112.941 202.885 112.85 202.931 112.804C200.748 113.305 199.475 115.214 199.111 117.352C198.975 118.079 199.02 118.807 199.065 119.534C199.202 120.898 199.429 122.263 199.884 123.536C201.157 127.083 204.022 129.629 207.66 130.493C210.479 131.175 213.617 130.902 216.208 129.493C219.119 127.901 221.074 124.809 221.756 121.58C222.12 119.898 222.211 118.125 221.529 116.533C220.938 115.123 219.755 113.941 218.346 113.305C218.255 113.259 218.164 113.214 218.073 113.168C218.118 113.214 218.164 113.305 218.209 113.35C218.209 111.258 218.209 109.167 218.209 107.075C218.255 106.802 217.845 106.802 217.845 107.075Z" fill="#192244"/>
<path d="M191.563 85.1575C190.608 86.1579 190.926 89.4318 190.926 89.4318C191.335 94.2974 195.2 94.3883 195.2 94.3883C196.428 99.9814 200.066 109.803 210.297 109.803C210.297 109.803 223.757 108.848 225.758 94.2519C225.758 94.2519 229.805 94.6611 230.214 88.5679C230.214 88.5679 231.032 84.1116 228.577 84.1116L214.208 63.6492L200.02 65.2862L195.973 71.3794L191.563 85.1575Z" fill="white"/>
<path d="M191.426 85.0215C190.79 85.7036 190.699 86.8404 190.699 87.7498C190.653 88.5229 190.699 89.3414 190.835 90.1144C191.108 91.9787 192.154 93.7067 194.018 94.3888C194.382 94.5252 194.837 94.6616 195.246 94.6616C195.2 94.6161 195.109 94.5706 195.064 94.5252C196.61 101.482 200.566 108.894 208.342 109.94C210.07 110.168 211.479 109.986 213.162 109.531C215.708 108.803 218.118 107.576 220.165 105.848C223.575 102.938 225.439 98.7541 226.076 94.3888C226.031 94.4342 225.94 94.4797 225.894 94.5252C226.622 94.6161 227.44 94.3433 228.031 93.9795C229.623 93.0246 230.259 91.1602 230.487 89.3868C230.669 88.0681 230.896 86.6585 230.441 85.3853C230.259 84.8396 229.714 83.9756 228.986 84.0211C228.895 84.0211 228.713 83.9756 228.895 84.1121C228.895 84.1121 228.895 84.0666 228.85 84.0666C228.804 84.0211 228.759 83.9302 228.713 83.8392C225.258 78.9282 221.756 73.9718 218.3 69.0608C217.027 67.2874 215.799 65.4685 214.526 63.6951C214.481 63.6496 214.435 63.6041 214.344 63.6041C211.98 63.877 209.661 64.1498 207.296 64.4226C205.659 64.6045 204.068 64.7864 202.431 64.9683C201.885 65.0138 201.339 65.1047 200.794 65.1502C200.612 65.1502 200.339 65.1502 200.157 65.2411C199.884 65.3321 199.748 65.7413 199.566 65.9687C199.157 66.5598 198.747 67.1964 198.338 67.7876C197.565 68.9698 196.701 70.1066 195.973 71.3344C195.701 71.7891 195.564 72.3802 195.428 72.9259C194.973 74.381 194.518 75.7907 194.018 77.2458C193.154 79.9286 192.29 82.566 191.426 85.2489C191.335 85.5217 191.745 85.6126 191.835 85.3398C192.563 83.1117 193.291 80.8835 193.973 78.6554C194.473 77.1094 194.973 75.5178 195.473 73.9718C195.701 73.1987 195.883 72.3803 196.201 71.6527C196.155 71.7436 196.246 71.5617 196.292 71.5617C196.428 71.3799 196.565 71.1525 196.701 70.9706C197.156 70.334 197.565 69.6519 198.02 69.0153C198.474 68.3332 198.929 67.6511 199.384 66.9691C199.566 66.6962 199.702 66.4689 199.884 66.196C199.975 66.1051 200.202 65.8323 200.202 65.6958C200.202 65.5594 200.02 65.6958 200.111 65.7413C200.202 65.7868 200.384 65.6958 200.475 65.6958C200.93 65.6504 201.385 65.6049 201.885 65.5594C203.431 65.3775 205.022 65.1957 206.568 65.0138C208.251 64.8319 209.888 64.65 211.57 64.4226C212.162 64.3772 212.753 64.2862 213.344 64.2407C213.48 64.2407 214.162 64.2407 214.253 64.1498C214.299 64.1043 214.162 64.0134 214.117 64.0588L214.208 64.1953C214.344 64.4681 214.572 64.6955 214.708 64.9228C215.345 65.8323 215.981 66.6962 216.572 67.6057C220.165 72.744 223.802 77.8824 227.395 83.0207C227.713 83.4755 228.031 84.0666 228.395 84.4758C228.441 84.5213 228.486 84.5668 228.577 84.6123C228.759 84.6577 228.941 84.6577 229.123 84.7032C229.35 84.7941 229.486 84.9306 229.623 85.1124C230.078 85.7491 230.123 86.613 230.123 87.3406C230.123 89.978 229.486 93.8431 226.303 94.2523C226.121 94.2978 225.94 94.2978 225.712 94.2523C225.621 94.2523 225.53 94.3433 225.53 94.3888C224.985 98.2994 223.439 102.028 220.619 104.847C218.664 106.757 216.254 108.167 213.662 109.031C212.525 109.395 211.298 109.758 210.07 109.758C205.977 109.804 202.294 107.803 199.793 104.665C197.474 101.755 196.11 98.1175 195.337 94.5252C195.337 94.4342 195.246 94.3888 195.155 94.3888C193.745 94.3433 192.427 93.3429 191.79 92.1606C191.244 91.2057 191.108 90.0689 191.062 88.9776C191.017 87.9317 190.926 86.3402 191.699 85.5217C191.881 85.1124 191.608 84.8396 191.426 85.0215Z" fill="#192244"/>
<path d="M215.026 101.118C213.935 102.164 212.116 102.755 210.615 102.892C209.797 102.983 208.978 102.892 208.251 102.528C207.569 102.21 206.75 101.801 206.159 101.3C205.977 101.118 205.659 101.437 205.886 101.573C206.523 102.119 207.387 102.528 208.16 102.892C208.933 103.256 209.797 103.347 210.661 103.301C212.298 103.119 214.162 102.528 215.344 101.391C215.481 101.255 215.208 100.937 215.026 101.118Z" fill="#192244"/>
<path d="M202.203 86.2944C201.657 86.158 201.066 86.6128 201.112 87.2039C201.112 87.2948 201.203 87.4312 201.293 87.3858C201.612 87.3858 201.976 87.3858 202.294 87.3858C202.385 87.3858 202.476 87.3403 202.476 87.2494C202.521 87.022 202.476 86.8401 202.385 86.6582C202.294 86.4763 202.112 86.3399 201.93 86.249C201.748 86.158 201.521 86.1126 201.339 86.2035C201.203 86.249 201.157 86.3854 201.112 86.5218C201.112 86.6128 201.112 86.7492 201.112 86.8401C201.157 87.0675 201.339 87.2494 201.566 87.3403C201.657 87.3858 201.794 87.2948 201.839 87.2039C201.885 87.0675 201.794 86.9765 201.703 86.9311C201.657 86.9311 201.703 86.9311 201.703 86.9311C201.703 86.9311 201.657 86.9311 201.657 86.8856C201.612 86.8856 201.657 86.8856 201.657 86.8856C201.657 86.8856 201.612 86.8856 201.612 86.8401C201.612 86.8401 201.612 86.7946 201.566 86.7946C201.566 86.7946 201.566 86.7492 201.521 86.7492C201.521 86.7037 201.521 86.7492 201.521 86.7492C201.521 86.7492 201.521 86.7492 201.521 86.7037V86.6582V86.6128C201.521 86.6582 201.521 86.6127 201.521 86.5673V86.5218C201.521 86.4763 201.521 86.5673 201.521 86.5218V86.4763C201.521 86.4763 201.521 86.4763 201.521 86.4309C201.521 86.3854 201.521 86.4763 201.521 86.4309C201.521 86.4309 201.521 86.3854 201.566 86.3854C201.521 86.4309 201.475 86.4309 201.43 86.4763C201.475 86.4763 201.475 86.4763 201.521 86.4763C201.521 86.4763 201.475 86.4763 201.521 86.4763H201.566H201.612C201.612 86.4763 201.657 86.4763 201.703 86.4763L201.794 86.5218C201.748 86.5218 201.748 86.5218 201.794 86.5218H201.839C201.885 86.5218 201.885 86.5673 201.93 86.5673L201.976 86.6128L202.021 86.6582C202.021 86.6582 202.021 86.6582 202.067 86.7037C202.112 86.7492 202.067 86.6582 202.067 86.7037L202.112 86.7492V86.7946L202.157 86.9311C202.157 86.8856 202.157 86.8856 202.157 86.9311V86.9765V87.022C202.157 87.022 202.157 87.022 202.157 87.0675C202.203 87.022 202.294 86.9765 202.339 86.9311C202.021 86.9311 201.657 86.9311 201.339 86.9311C201.384 87.022 201.475 87.0675 201.566 87.1584C201.566 87.1129 201.566 87.1129 201.566 87.0675V87.022C201.566 87.0675 201.566 87.0675 201.566 87.022C201.566 86.9765 201.566 86.9765 201.566 86.9311V86.8856C201.566 86.9311 201.566 86.9311 201.566 86.8856C201.566 86.8856 201.566 86.8401 201.612 86.8401C201.612 86.8401 201.612 86.8401 201.612 86.7946C201.612 86.7492 201.612 86.8401 201.612 86.7946C201.657 86.7492 201.657 86.7037 201.703 86.7037C201.748 86.7037 201.703 86.7037 201.703 86.7037C201.703 86.7037 201.748 86.7037 201.748 86.6582L201.794 86.6128H201.839C201.885 86.6128 201.794 86.6128 201.839 86.6128C201.885 86.6128 201.885 86.6127 201.93 86.5673H201.976C202.021 86.5673 201.93 86.5673 201.976 86.5673H202.021H202.067C202.112 86.5673 202.021 86.5673 202.067 86.5673H202.112C202.203 86.6127 202.339 86.5218 202.385 86.4309C202.385 86.4763 202.294 86.3399 202.203 86.2944Z" fill="#192244"/>
<path d="M219.301 86.4307C219.164 86.3852 219.073 86.3398 218.937 86.3852C218.846 86.4307 218.71 86.4762 218.664 86.5671C218.573 86.6581 218.528 86.749 218.482 86.8399C218.437 86.9764 218.437 87.1128 218.528 87.2037C218.573 87.2947 218.664 87.3401 218.755 87.3401C218.846 87.3856 218.892 87.3856 218.982 87.4311C219.119 87.4766 219.301 87.4766 219.437 87.3856C219.528 87.3401 219.619 87.2492 219.665 87.1128C219.71 86.9764 219.71 86.84 219.665 86.749C219.574 86.6126 219.392 86.5216 219.255 86.5216C219.164 86.5216 219.073 86.5216 219.028 86.5671C218.937 86.5671 218.892 86.6126 218.801 86.6126C218.755 86.6126 218.71 86.6581 218.664 86.7035C218.619 86.749 218.619 86.7945 218.664 86.8399C218.664 86.8854 218.71 86.9309 218.755 86.9764C218.801 87.0218 218.846 87.0218 218.892 86.9764C219.028 86.9764 219.119 86.9309 219.255 86.9309H219.21C219.255 86.9309 219.301 86.9309 219.346 86.9309H219.301H219.346C219.392 86.9309 219.301 86.8854 219.346 86.9309C219.346 86.9309 219.346 86.9309 219.392 86.9309C219.346 86.8854 219.346 86.8854 219.392 86.9309C219.437 86.9764 219.346 86.8854 219.392 86.9309C219.346 86.8854 219.392 86.8854 219.392 86.9309C219.392 86.9309 219.392 86.9309 219.392 86.9764V86.9309V86.9764V86.9309V86.9764C219.392 87.0218 219.392 86.9764 219.392 86.9309C219.392 86.9309 219.392 86.9764 219.346 86.9764C219.346 86.9764 219.392 86.9309 219.346 86.9764C219.346 86.9764 219.346 86.9764 219.301 87.0218C219.255 87.0218 219.346 86.9764 219.301 87.0218C219.255 87.0218 219.346 87.0218 219.301 87.0218H219.255H219.301C219.255 87.0218 219.21 87.0218 219.164 87.0218H219.21C219.164 87.0218 219.073 86.9764 219.028 86.9764C219.028 86.9764 219.028 86.9764 218.982 86.9764H218.937C218.892 86.9764 218.892 86.9309 218.846 86.9309C218.892 86.9764 218.892 86.9764 218.937 87.0218C218.937 86.9764 218.937 87.0673 218.937 87.0218V86.9764V87.0218C218.937 86.9764 218.937 86.9764 218.937 86.9309V86.9764V86.9309C218.937 86.9309 218.982 86.8854 218.937 86.9309C218.937 86.9309 218.937 86.9309 218.937 86.8854L218.982 86.8399C218.937 86.8854 218.982 86.8854 218.982 86.8399C218.982 86.8399 218.982 86.8399 219.028 86.7945C219.028 86.7945 219.028 86.7945 219.073 86.7945C219.119 86.749 219.028 86.8399 219.073 86.7945L219.119 86.749C219.119 86.749 219.164 86.749 219.119 86.749C219.119 86.749 219.119 86.749 219.164 86.749H219.21H219.164C219.21 86.749 219.21 86.749 219.255 86.749H219.21H219.255C219.255 86.749 219.255 86.749 219.301 86.749C219.301 86.749 219.255 86.7035 219.301 86.749C219.392 86.7945 219.528 86.7945 219.574 86.6581C219.437 86.6126 219.437 86.4762 219.301 86.4307Z" fill="#192244"/>
<path d="M197.929 83.2032C199.747 82.4756 201.748 82.4301 203.567 83.0668C203.795 83.1577 203.931 82.7485 203.658 82.6575C201.748 81.9754 199.657 82.0209 197.792 82.7939C197.565 82.9303 197.656 83.3396 197.929 83.2032Z" fill="#192244"/>
<path d="M216.254 83.2484C217.118 82.8392 218.118 82.6118 219.073 82.5663C219.528 82.5663 220.119 82.5208 220.483 82.7482C220.801 82.9756 221.028 83.2939 221.392 83.3848C221.665 83.4758 221.756 83.0665 221.483 82.9756C221.074 82.8846 220.847 82.4299 220.483 82.2935C220.028 82.1116 219.437 82.1116 218.982 82.1571C217.936 82.2025 216.981 82.4299 216.027 82.8846C215.799 83.021 215.981 83.3393 216.254 83.2484Z" fill="#192244"/>
<path d="M208.387 90.4329C208.251 91.0695 208.16 91.6606 208.069 92.2972C208.024 92.6155 207.978 92.9338 207.933 93.2521C207.887 93.525 207.842 93.7978 207.842 94.0252C207.842 94.207 207.933 94.4344 208.069 94.5708C208.297 94.7527 208.569 94.7072 208.797 94.7072C209.433 94.7072 210.07 94.7072 210.707 94.7072C210.979 94.7072 210.979 94.298 210.707 94.298C210.161 94.298 209.615 94.298 209.07 94.298C208.933 94.298 208.797 94.298 208.66 94.298C208.569 94.298 208.387 94.298 208.297 94.2525C208.16 94.1616 208.206 93.9342 208.206 93.7523C208.297 92.661 208.524 91.6151 208.706 90.5238C208.842 90.251 208.433 90.16 208.387 90.4329Z" fill="#192244"/>
<path d="M194.564 90.6599C194.564 90.6599 188.88 83.7936 190.108 73.6533C190.108 73.6533 190.517 55.0098 210.797 55.7373C210.797 55.7373 226.576 55.0098 229.805 68.3786C229.805 68.3786 233.033 81.3381 226.576 90.2506C226.576 90.2506 228.622 84.9759 223.757 81.3381C218.891 77.7003 206.75 76.0633 203.113 69.1971C203.067 69.1971 194.155 73.2441 194.564 90.6599Z" fill="#192244"/>
<path d="M200.611 58.6932C200.611 58.6932 197.792 56.2831 197.792 51.8269C197.792 51.8269 197.065 41.0955 210.797 41.0045C210.797 41.0045 223.302 41.2774 223.302 51.4176C223.302 51.4176 224.12 55.4646 219.664 59.5117L200.611 58.6932Z" fill="#192244"/>
<path opacity="0.4" d="M209.024 162.052C249.432 162.052 282.189 160.097 282.189 157.686C282.189 155.275 249.432 153.321 209.024 153.321C168.616 153.321 135.859 155.275 135.859 157.686C135.859 160.097 168.616 162.052 209.024 162.052Z" fill="#D6D8E5"/>
<path d="M42.8688 141.179C45.3243 143.043 47.7344 144.908 50.1898 146.772C54.1004 149.728 57.9656 152.729 61.8762 155.684C62.7856 156.367 63.6496 157.049 64.559 157.731C64.65 157.822 64.8319 157.731 64.8773 157.594C65.5594 155.457 66.2415 153.365 66.9236 151.228C68.0149 147.863 69.0608 144.498 70.1521 141.133C70.3795 140.36 70.6523 139.587 70.8797 138.814C70.9706 138.541 70.5614 138.451 70.4704 138.723C69.7883 140.861 69.1062 142.952 68.4242 145.089C67.3328 148.454 66.287 151.819 65.1956 155.184C64.9683 155.957 64.6954 156.73 64.4681 157.503C64.559 157.458 64.65 157.412 64.7864 157.367C62.3309 155.503 59.9209 153.638 57.4654 151.774C53.5548 148.818 49.6896 145.817 45.779 142.861C44.8696 142.179 44.0056 141.497 43.0962 140.815C42.8688 140.679 42.6415 141.042 42.8688 141.179Z" fill="#192244"/>
<path d="M45.0062 224.394C44.0512 224.803 43.2327 225.576 42.5052 226.304C40.6408 228.259 39.4586 230.715 38.822 233.307C38.2763 235.58 38.1399 237.99 38.2308 240.309C38.2308 240.582 38.6401 240.582 38.6401 240.309C38.4127 234.898 39.6404 228.532 44.3695 225.213C44.6424 225.031 44.9152 224.849 45.2335 224.712C45.4609 224.667 45.2335 224.303 45.0062 224.394Z" fill="#192244"/>
<path d="M33.6835 255.633L32.1375 263.318L97.8902 263.09L96.526 258.543L88.341 255.633H33.6835Z" fill="#3F4FD3"/>
<path d="M93.7065 206.613C93.9793 204.203 94.2521 201.793 94.4795 199.338C94.8887 195.473 95.3435 191.608 95.7527 187.742C95.8437 186.833 95.9346 185.969 96.0255 185.06C96.071 184.787 95.6618 184.787 95.6163 185.06C95.3435 187.47 95.0706 189.88 94.8433 192.335C94.434 196.2 93.9793 200.065 93.5701 203.931C93.4791 204.84 93.3882 205.704 93.2972 206.613C93.2517 206.841 93.661 206.841 93.7065 206.613Z" fill="#192244"/>
<path d="M33.2742 194.701C34.1837 189.381 35.1386 184.106 36.048 178.786C36.1845 178.013 36.3209 177.285 36.4573 176.512C36.5028 176.239 36.0935 176.148 36.048 176.421C35.1386 181.741 34.1837 187.016 33.2742 192.336C33.1378 193.109 33.0014 193.837 32.865 194.61C32.865 194.837 33.2288 194.928 33.2742 194.701Z" fill="#192244"/>
<path d="M83.1573 95.0253C83.1573 95.0253 90.3419 90.0234 82.3388 85.4307C82.3388 85.4307 70.9253 78.9737 54.6917 81.7475C54.6917 81.7475 48.9168 83.2481 44.506 88.1136C44.506 88.1136 30.8189 95.7074 39.1403 112.305C39.1403 112.305 40.8227 106.302 43.7784 107.485C46.7341 108.621 48.3256 113.942 48.3256 113.942C48.3256 113.942 48.4621 105.802 49.8262 101.619C51.1904 97.4354 54.1915 95.1163 58.1021 97.5718C62.0582 100.027 74.9268 105.484 80.3835 106.439C85.9311 107.485 91.5242 100.937 83.1573 95.0253Z" fill="#192244"/>
<path d="M57.0562 133.723C62.4674 134.132 68.4697 134.496 73.0169 130.994C74.9267 129.539 76.2454 127.538 76.7456 125.174C77.3822 122.309 77.1094 119.308 77.0639 116.398C77.0185 112.805 76.973 109.213 76.9275 105.575C76.9275 105.303 76.5183 105.303 76.5183 105.575C76.5637 108.622 76.6092 111.669 76.6547 114.67C76.7002 117.535 76.9275 120.445 76.6547 123.31C76.4273 125.901 75.4724 128.266 73.5171 130.039C71.7437 131.631 69.5156 132.631 67.1965 133.086C63.877 133.768 60.4666 133.495 57.1017 133.222C56.7834 133.313 56.7834 133.723 57.0562 133.723Z" fill="#192244"/>
<path d="M43.9146 121.99C44.2329 123.537 44.9604 124.901 46.0518 126.038C46.9612 126.992 47.5978 128.266 48.1435 129.493C48.7801 130.858 49.1439 132.313 49.3712 133.813C49.5986 135.541 49.3712 137.178 48.8255 138.861C48.7346 139.133 49.1439 139.224 49.2348 138.952C49.735 137.36 50.0533 135.769 49.8259 134.086C49.644 132.585 49.2803 131.13 48.7346 129.721C48.1889 128.493 47.5978 127.22 46.7338 126.128C46.2336 125.492 45.688 124.992 45.2787 124.31C44.824 123.537 44.5057 122.718 44.3238 121.809C44.2329 121.627 43.8691 121.763 43.9146 121.99Z" fill="#192244"/>
<path d="M66.5597 133.768C66.5143 134.45 66.5143 135.177 66.3779 135.905C66.2869 136.632 66.105 137.314 65.9686 137.996C65.9231 138.269 66.3324 138.36 66.3779 138.087C66.5143 137.36 66.6962 136.678 66.7871 135.95C66.878 135.223 66.9235 134.495 66.969 133.768C66.969 133.54 66.5597 133.54 66.5597 133.768Z" fill="#192244"/>
<path d="M45.5061 111.623C46.1427 113.305 45.5061 115.397 44.0056 116.443C43.7782 116.579 44.0056 116.943 44.2329 116.806C45.8699 115.67 46.5975 113.441 45.9154 111.532C45.8244 111.259 45.4152 111.395 45.5061 111.623Z" fill="#192244"/>
<path d="M58.2385 109.804C58.8296 110.532 59.5117 111.305 60.4666 111.441C61.2396 111.532 62.1036 111.123 62.2855 110.304C62.3309 110.031 61.9217 109.94 61.8762 110.213C61.7398 110.85 60.9668 111.168 60.3756 111.032C59.5571 110.85 59.0115 110.122 58.5113 109.531C58.3294 109.304 58.0566 109.622 58.2385 109.804Z" fill="#192244"/>
<path d="M68.8788 110.713C69.7428 111.44 70.7887 112.304 72.0164 112.304C72.9713 112.304 73.9717 111.804 74.1991 110.849C74.29 110.576 73.8808 110.486 73.7898 110.758C73.5625 111.577 72.653 111.941 71.8345 111.895C70.7887 111.804 69.8792 111.077 69.1517 110.395C68.9698 110.258 68.6969 110.531 68.8788 110.713Z" fill="#192244"/>
<path d="M68.8332 115.624C68.9242 116.397 68.9697 117.17 69.0606 117.943C69.1061 118.307 69.1515 118.671 69.1515 119.08C69.197 119.444 69.2425 119.808 69.197 120.171C69.1515 120.49 69.0151 120.808 68.7423 120.944C68.4695 121.081 68.1966 120.99 67.9238 120.944C67.5145 120.853 67.0144 120.717 66.7415 121.172C66.6051 121.399 66.9689 121.581 67.1053 121.399C67.2417 121.172 67.6055 121.308 67.8328 121.354C68.0602 121.399 68.333 121.49 68.6059 121.445C69.1515 121.354 69.5153 120.853 69.6063 120.308C69.7427 119.58 69.5608 118.807 69.4698 118.08C69.3789 117.261 69.288 116.443 69.2425 115.624C69.2425 115.397 68.8332 115.397 68.8332 115.624Z" fill="#192244"/>
<path d="M67.6054 125.674C66.5141 125.719 65.4228 125.674 64.3314 125.583C63.8312 125.537 63.2856 125.492 62.8308 125.31C62.4216 125.128 62.1033 124.673 62.1942 124.219C62.2397 123.946 61.8759 123.855 61.785 124.128C61.694 124.582 61.8305 125.037 62.1488 125.355C62.5125 125.765 63.1037 125.901 63.6039 125.947C64.9226 126.128 66.2867 126.128 67.6054 126.083C67.8782 126.037 67.8782 125.628 67.6054 125.674Z" fill="#192244"/>
<path d="M33.8653 255.633C34.32 250.813 34.8202 245.947 35.2749 241.127C35.3204 240.445 35.4114 239.763 35.4568 239.081C35.5023 238.808 35.0931 238.808 35.0476 239.081C34.5929 243.901 34.0927 248.767 33.6379 253.587C33.5925 254.269 33.5015 254.951 33.4561 255.633C33.4561 255.906 33.8653 255.906 33.8653 255.633Z" fill="#192244"/>
<path d="M65.6047 137.997C70.1519 138.77 74.6537 139.816 78.8371 141.771C82.4749 143.453 85.7489 145.681 88.9774 148.001C90.8417 149.319 92.888 150.592 94.5704 152.139C95.9346 153.366 97.0714 154.776 97.9809 156.322C100.073 159.732 101.3 163.643 102.255 167.508C104.12 175.102 104.711 182.923 106.848 190.472C108.258 195.519 109.622 200.566 110.94 205.659C111.35 207.16 111.713 208.66 112.077 210.161C112.123 210.297 112.168 210.979 112.305 211.07C112.35 211.116 112.396 210.934 112.35 210.934C112.305 210.934 112.168 211.07 112.168 211.116C108.439 214.39 104.711 217.618 100.982 220.892C100.891 220.983 100.755 221.074 100.664 221.165C100.755 221.165 100.846 221.165 100.937 221.165C100.164 220.392 99.345 219.574 98.572 218.801C98.0718 218.3 97.5261 217.755 97.0259 217.255C96.8895 217.118 96.7531 216.982 96.6167 216.845C96.4348 216.709 96.5712 216.845 96.5712 216.8C96.2074 215.936 96.0256 214.936 95.7982 214.026C95.3435 212.525 94.9342 210.979 94.4795 209.479C94.2067 208.524 93.9338 207.524 93.661 206.569C93.6155 206.387 93.2972 206.341 93.2518 206.569C92.3423 211.707 91.4329 216.891 90.5234 222.029C90.0232 224.803 89.523 227.577 89.0683 230.351C89.0228 230.714 88.841 231.169 88.8864 231.578C88.9319 232.533 89.2957 233.579 89.4776 234.534C90.0687 237.535 90.7053 240.582 91.2965 243.583C91.2965 243.674 91.3874 243.719 91.4783 243.719C94.525 243.583 97.5261 243.401 100.573 243.265C100.527 243.219 100.436 243.128 100.391 243.037C100.254 247.948 100.118 252.859 99.9816 257.725C99.9816 258.452 99.9361 259.134 99.9361 259.862C100.027 259.816 100.118 259.726 100.209 259.68C95.0252 257.861 89.7959 256.088 84.6121 254.269C82.293 253.45 80.0194 252.677 77.7003 251.859C77.3365 251.722 77.0182 251.722 76.6544 251.632C75.2448 251.404 73.8806 251.177 72.471 250.904C69.6972 250.358 66.9234 249.676 64.1951 248.949C53.3727 246.084 42.8232 242.082 32.592 237.626C26.1804 234.852 19.8598 231.851 13.6301 228.623C13.3573 228.486 13.0844 228.304 12.7661 228.168C12.7207 228.122 12.4478 227.941 12.3569 227.941C12.3114 227.941 12.3569 228.168 12.4024 228.031C12.4478 227.941 12.4024 227.668 12.4024 227.577C12.4024 225.803 12.4024 223.984 12.4024 222.211C12.4024 215.436 12.4024 208.615 12.4024 201.84C12.4024 195.564 12.4024 189.244 12.4024 182.969C12.4024 176.784 12.2205 170.464 13.6301 164.416C14.2667 161.688 15.3126 159.05 17.1769 156.959C18.723 155.185 20.6783 153.73 22.3607 152.093C25.3619 149.137 29.2725 147.137 33.0467 145.363C36.639 143.681 40.3677 142.18 44.1419 140.816C44.733 140.589 45.3696 140.361 45.9608 140.179C46.1881 140.088 46.0972 139.679 45.8698 139.77C42.9141 140.77 39.9584 141.907 37.0937 143.135C34.6382 144.181 32.1827 145.272 29.7727 146.545C27.59 147.682 25.3619 148.955 23.4521 150.547C22.2243 151.593 21.0875 152.775 19.8598 153.821C18.8594 154.685 17.859 155.594 16.9496 156.595C14.7214 159.141 13.5846 162.324 12.9935 165.598C12.1295 170.282 12.0386 175.102 12.0386 179.831C12.0386 181.877 12.0386 183.969 12.0386 186.015C12.0386 189.835 12.0386 193.609 12.0386 197.429C12.0386 201.794 12.0386 206.159 12.0386 210.525C12.0386 214.299 12.0386 218.073 12.0386 221.847C12.0386 223.848 12.0386 225.894 12.0386 227.895C12.0386 227.986 12.0386 228.077 12.0386 228.168C12.0386 228.259 12.084 228.304 12.1295 228.35C15.1307 229.987 18.1773 231.487 21.2694 232.942C28.5449 236.444 35.9569 239.672 43.5053 242.583C52.5542 246.038 61.7851 249.085 71.2433 251.086C72.3801 251.313 73.5623 251.541 74.6991 251.768C75.5631 251.904 76.518 251.995 77.3365 252.223C77.7912 252.359 78.246 252.541 78.6552 252.677C80.9743 253.496 83.3388 254.314 85.6579 255.087C90.387 256.724 95.0706 258.361 99.7997 259.998C99.8907 260.044 99.9816 260.044 100.073 260.089C100.209 260.135 100.345 259.998 100.345 259.907C100.482 254.996 100.618 250.085 100.755 245.22C100.755 244.492 100.8 243.81 100.8 243.083C100.8 242.992 100.709 242.855 100.618 242.901C97.5716 243.037 94.5704 243.219 91.5238 243.356C91.5693 243.401 91.6602 243.447 91.7057 243.492C91.2055 240.9 90.6598 238.354 90.1597 235.762C89.8868 234.443 89.614 233.124 89.3866 231.851C89.3866 231.76 89.3411 231.624 89.2957 231.533C89.2957 231.396 89.2957 231.669 89.2957 231.533C89.3411 231.351 89.3866 231.124 89.3866 230.942C90.4325 224.939 91.5238 218.892 92.5697 212.889C92.9334 210.843 93.2972 208.797 93.661 206.705C93.5246 206.705 93.3882 206.705 93.2518 206.705C93.9338 209.024 94.5704 211.389 95.2525 213.708C95.5254 214.754 95.7527 215.845 96.162 216.845C96.2529 217.027 96.2984 217.118 96.4348 217.255C96.8895 217.709 97.3442 218.164 97.799 218.619C98.7539 219.574 99.6633 220.483 100.618 221.438C100.709 221.529 100.846 221.529 100.891 221.438C104.301 218.437 107.757 215.436 111.168 212.435C111.668 212.025 112.123 211.616 112.623 211.161C112.668 211.116 112.714 211.025 112.668 210.979C111.304 205.568 109.895 200.157 108.394 194.746C107.53 191.517 106.53 188.334 105.848 185.015C105.256 182.105 104.847 179.149 104.347 176.193C103.301 170.055 102.164 163.734 99.3905 158.141C98.1627 155.64 96.5712 153.275 94.3886 151.502C93.0699 150.411 91.6148 149.456 90.2506 148.501C88.8864 147.5 87.4768 146.5 86.0672 145.591C83.5662 143.908 81.0198 142.362 78.2914 141.18C75.1993 139.816 71.9708 138.906 68.6513 138.224C67.651 137.997 66.6506 137.815 65.6047 137.678C65.4683 137.542 65.3319 137.951 65.6047 137.997Z" fill="#192244"/>
<path d="M34.1836 218.755C34.0927 216.027 33.9563 213.344 33.8653 210.615C33.6834 206.296 33.547 201.976 33.3651 197.656C33.3197 196.655 33.2742 195.655 33.2742 194.7C33.2742 194.473 32.9104 194.427 32.8649 194.655C32.0919 197.838 31.4098 201.066 30.7732 204.249C30.364 206.432 29.9547 208.615 29.7728 210.797C29.5455 212.98 29.8183 215.072 31.2734 216.8C32.3193 218.027 33.547 218.573 34.8202 219.301C36.7301 220.346 38.6399 221.347 40.5497 222.393C43.6418 224.075 46.6885 225.712 49.7806 227.395C53.3274 229.304 56.8742 231.26 60.421 233.17C63.786 234.988 67.1509 236.807 70.5158 238.672C73.0623 240.036 75.5632 241.4 78.1097 242.764C78.8372 243.173 79.6102 243.583 80.3378 243.992C80.6106 244.128 80.8835 244.356 81.1563 244.447C81.4291 244.538 81.7474 244.447 82.0203 244.447C82.8842 244.401 83.7027 244.356 84.5667 244.265C87.6133 244.083 90.6145 243.901 93.6611 243.719C95.571 243.628 97.4808 243.492 99.3906 243.401C99.6634 243.401 99.6634 242.992 99.3906 242.992C93.6157 243.31 87.8407 243.628 82.0657 243.992C81.8384 243.992 81.6565 243.992 81.4291 244.037C81.3382 244.037 81.2018 244.037 81.3837 244.083C81.2927 244.037 81.2018 243.992 81.1108 243.946C80.5652 243.674 80.065 243.355 79.5193 243.082C77.3366 241.9 75.154 240.718 72.9713 239.536C69.7883 237.808 66.6052 236.08 63.4222 234.352C59.8754 232.442 56.3285 230.532 52.8272 228.622C49.5987 226.849 46.3702 225.121 43.0962 223.348C40.8226 222.12 38.549 220.892 36.2299 219.619C35.4114 219.164 34.4565 218.664 33.6834 218.255C31.9555 217.345 30.6368 215.754 30.2276 213.844C29.7728 211.843 30.273 209.615 30.5913 207.614C31.2279 203.522 32.1374 199.52 33.0923 195.473C33.1378 195.2 33.2287 194.973 33.2742 194.7C33.1378 194.7 33.0014 194.655 32.8649 194.655C32.9559 197.383 33.0923 200.066 33.1832 202.794C33.3651 207.114 33.5016 211.434 33.6834 215.754C33.7289 216.754 33.7744 217.754 33.7744 218.709C33.8199 218.982 34.2291 218.982 34.1836 218.755Z" fill="#192244"/>
<path opacity="0.5" d="M98.1174 258.315L21.8152 255.632L123.354 148.045L177.193 209.66L98.1174 258.315Z" fill="url(#paint1_linear)"/>
<path d="M102.21 209.66L98.1172 258.315H86.4309V263.317H170.418L177.193 209.66H102.21Z" fill="#D6D8E5"/>
<path d="M287.827 41.0496H276.686C276.277 41.0496 275.913 40.6858 275.913 40.2765V38.0484C275.913 37.6392 276.277 37.2754 276.686 37.2754H287.827C288.236 37.2754 288.6 37.6392 288.6 38.0484V40.2765C288.6 40.6858 288.282 41.0496 287.827 41.0496Z" fill="#192244"/>
<path d="M282.052 0.17052C282.052 1.85299 282.052 3.53546 282.052 5.21793C282.052 5.44529 282.052 5.67265 282.052 5.94548C282.052 6.21831 282.461 6.21831 282.461 5.94548C282.461 4.26301 282.461 2.58054 282.461 0.898074C282.461 0.670714 282.461 0.443353 282.461 0.17052C282.461 -0.0568401 282.052 -0.0568401 282.052 0.17052Z" fill="#F5B900"/>
<path d="M265.864 7.49175C266.864 8.49214 267.91 9.49252 268.911 10.4929C269.047 10.6293 269.184 10.7657 269.32 10.9022C269.502 11.084 269.82 10.8112 269.593 10.6293C268.592 9.62894 267.547 8.62855 266.546 7.62817C266.41 7.49175 266.273 7.35534 266.137 7.21892C266 7.03703 265.682 7.30986 265.864 7.49175Z" fill="#F5B900"/>
<path d="M258.861 23.9063C260.407 23.9063 261.953 23.9063 263.5 23.9063C263.727 23.9063 263.954 23.9063 264.136 23.9063C264.409 23.9063 264.409 23.4971 264.136 23.4971C262.59 23.4971 261.044 23.4971 259.498 23.4971C259.271 23.4971 259.043 23.4971 258.861 23.4971C258.589 23.4971 258.589 23.9063 258.861 23.9063Z" fill="#F5B900"/>
<path d="M298.376 7.21892C297.376 8.21931 296.33 9.21969 295.33 10.2201C295.193 10.3565 295.057 10.4929 294.921 10.6293C294.739 10.8112 295.012 11.084 295.193 10.9022C296.194 9.90177 297.24 8.90139 298.24 7.901C298.376 7.76458 298.513 7.62817 298.649 7.49175C298.877 7.30986 298.558 7.03703 298.376 7.21892Z" fill="#F5B900"/>
<path d="M305.698 23.4971C304.152 23.4971 302.606 23.4971 301.059 23.4971C300.832 23.4971 300.605 23.4971 300.423 23.4971C300.15 23.4971 300.15 23.9063 300.423 23.9063C301.969 23.9063 303.515 23.9063 305.061 23.9063C305.288 23.9063 305.516 23.9063 305.698 23.9063C305.97 23.9063 305.97 23.4971 305.698 23.4971Z" fill="#F5B900"/>
<path d="M286.872 41.0505C286.918 41.3688 286.963 41.6871 286.963 42.0054C286.963 44.5973 284.871 46.7345 282.234 46.7345C279.642 46.7345 277.505 44.6428 277.505 42.0054C277.505 41.6871 277.55 41.3688 277.596 41.0505H286.872Z" fill="#3F4FD3"/>
<path d="M277.732 37.2297C277.323 35.9565 276.595 34.7287 275.868 33.5919C275.049 32.3642 274.14 31.1819 273.14 30.0451C272.139 28.9538 271.321 27.7715 270.73 26.4073C268.501 21.269 270.048 15.1757 274.367 11.6744C278.46 8.35489 284.371 7.99112 288.827 10.7649C293.466 13.6297 295.739 19.3137 294.375 24.5884C293.92 26.2709 293.147 27.8624 292.101 29.2266C291.147 30.4543 290.055 31.5457 289.146 32.8189C288.191 34.1376 287.281 35.6382 286.781 37.1842C286.827 37.1388 286.918 37.0933 286.963 37.0478C283.78 37.0478 280.642 37.0478 277.459 37.0478C277.187 37.0478 277.187 37.4571 277.459 37.4571C280.642 37.4571 283.78 37.4571 286.963 37.4571C287.054 37.4571 287.145 37.4116 287.145 37.3206C287.645 35.8655 288.509 34.4559 289.373 33.1827C290.237 31.9095 291.328 30.7726 292.283 29.5904C293.193 28.499 293.875 27.2258 294.375 25.8617C296.239 20.6778 294.557 14.721 290.237 11.3106C286.145 8.08206 280.324 7.58187 275.777 10.1738C271.184 12.8112 268.638 18.0405 269.365 23.2697C269.593 24.8158 270.093 26.2709 270.821 27.6351C271.548 28.9538 272.548 29.9996 273.503 31.1819C274.958 32.9098 276.277 34.8651 277.141 37.0023C277.187 37.0933 277.232 37.1842 277.232 37.3206C277.414 37.548 277.823 37.4571 277.732 37.2297Z" fill="#192244"/>
<path d="M280.87 37.2752C280.87 33.501 280.87 29.7268 280.87 25.9071C280.87 24.543 280.915 23.1333 280.87 21.7692C280.824 20.3141 279.551 19.1318 278.096 19.3137C276.595 19.4956 275.595 21.0416 276.05 22.4967C276.732 24.7703 279.551 24.2247 281.37 24.2247C282.552 24.2247 283.78 24.2247 284.962 24.2247C285.69 24.2247 286.508 24.3156 287.19 23.9973C288.6 23.3607 289.1 21.5418 288.236 20.2686C287.327 18.9954 285.462 18.859 284.417 19.9958C283.416 21.0416 283.735 22.9515 283.735 24.2702C283.735 28.4536 283.735 32.6825 283.735 36.8659C283.735 36.9569 283.735 37.0478 283.735 37.1842C283.735 37.4571 284.144 37.4571 284.144 37.1842C284.144 33.9102 284.144 30.6362 284.144 27.3623C284.144 25.6343 284.144 23.9518 284.144 22.2239C284.144 21.6328 284.144 21.0416 284.508 20.496C285.69 18.7226 288.555 19.8594 288.282 21.9511C288.1 23.2243 287.009 23.7245 285.826 23.7245C284.962 23.7245 284.053 23.7245 283.189 23.7245C282.098 23.7245 281.006 23.7245 279.915 23.7245C279.324 23.7245 278.733 23.77 278.187 23.7245C276.095 23.4517 275.777 20.4505 277.778 19.7229C279.187 19.2227 280.506 20.3141 280.551 21.7237C280.597 23.0424 280.551 24.4066 280.551 25.7253C280.551 29.454 280.551 33.1827 280.551 36.9114C280.551 37.0023 280.551 37.0478 280.551 37.1388C280.461 37.548 280.87 37.548 280.87 37.2752Z" fill="#192244"/>
<path d="M67.8785 53.8733H22.1335V70.1978H28.6815L37.3667 78.9284V70.1978H67.8785V53.8733Z" fill="#3F4FD3"/>
<path d="M55.4646 63.468C56.4692 63.468 57.2835 62.6536 57.2835 61.6491C57.2835 60.6445 56.4692 59.8302 55.4646 59.8302C54.4601 59.8302 53.6458 60.6445 53.6458 61.6491C53.6458 62.6536 54.4601 63.468 55.4646 63.468Z" fill="white"/>
<path d="M45.0061 63.468C46.0107 63.468 46.825 62.6536 46.825 61.6491C46.825 60.6445 46.0107 59.8302 45.0061 59.8302C44.0016 59.8302 43.1873 60.6445 43.1873 61.6491C43.1873 62.6536 44.0016 63.468 45.0061 63.468Z" fill="white"/>
<path d="M34.5474 63.468C35.5519 63.468 36.3663 62.6537 36.3663 61.6491C36.3663 60.6446 35.5519 59.8303 34.5474 59.8303C33.5429 59.8303 32.7285 60.6446 32.7285 61.6491C32.7285 62.6537 33.5429 63.468 34.5474 63.468Z" fill="white"/>
<path d="M90.7056 78.3364H91.6605V89.5226L101.937 78.3364H155.594C159.641 78.3364 162.961 74.6987 162.961 70.1969V45.0508C162.961 40.5491 159.687 36.9113 155.594 36.9113H90.7056C86.6586 36.9113 83.3391 40.5491 83.3391 45.0508V70.1969C83.3391 74.6987 86.6131 78.3364 90.7056 78.3364Z" fill="white"/>
<path d="M90.7056 78.5651C91.0239 78.5651 91.3422 78.5651 91.6605 78.5651C91.615 78.4742 91.5241 78.4287 91.4786 78.3832C91.4786 81.6572 91.4786 84.8857 91.4786 88.1597C91.4786 88.6144 91.4786 89.1146 91.4786 89.5694C91.4786 89.7513 91.706 89.8422 91.8424 89.7058C94.3888 86.8865 96.9807 84.1127 99.5272 81.2934C100.164 80.6114 100.755 79.9293 101.392 79.2472C101.573 79.0653 101.755 78.8379 101.937 78.6561C102.119 78.4742 102.119 78.5196 101.937 78.5196C102.437 78.5196 102.938 78.5196 103.438 78.5196C106.575 78.5196 109.758 78.5196 112.896 78.5196C117.716 78.5196 122.491 78.5196 127.311 78.5196C132.267 78.5196 137.224 78.5196 142.135 78.5196C145.727 78.5196 149.274 78.5196 152.866 78.5196C153.684 78.5196 154.503 78.5196 155.321 78.5196C157.277 78.5196 159.141 77.8376 160.551 76.4734C162.324 74.7455 163.143 72.3809 163.143 69.9254C163.143 68.5158 163.143 67.1516 163.143 65.742C163.143 60.9219 163.143 56.1019 163.143 51.2818C163.143 49.5539 163.143 47.7805 163.143 46.0526C163.143 44.2791 163.006 42.5967 162.188 41.0051C160.915 38.5042 158.414 36.7308 155.549 36.7308C155.049 36.7308 154.594 36.7308 154.094 36.7308C151.274 36.7308 148.455 36.7308 145.59 36.7308C141.134 36.7308 136.678 36.7308 132.222 36.7308C127.129 36.7308 122.036 36.7308 116.943 36.7308C112.259 36.7308 107.621 36.7308 102.938 36.7308C99.7091 36.7308 96.4806 36.7308 93.2975 36.7308C92.5245 36.7308 91.7969 36.7308 91.0239 36.7308C89.3414 36.7308 87.7954 37.1855 86.4312 38.1859C84.2486 39.8229 83.1572 42.5057 83.1572 45.1886C83.1572 46.4163 83.1572 47.6441 83.1572 48.9173C83.1572 53.6919 83.1572 58.4664 83.1572 63.241C83.1572 65.1054 83.1572 66.9697 83.1572 68.8341C83.1572 70.3801 83.1572 71.8807 83.7029 73.3358C84.7942 76.337 87.4771 78.5196 90.7056 78.5651C90.9784 78.5651 90.9784 78.1559 90.7056 78.1559C86.9769 78.1104 84.1576 75.0638 83.6574 71.5169C83.4755 70.4256 83.5665 69.2433 83.5665 68.1065C83.5665 63.6503 83.5665 59.1485 83.5665 54.6923C83.5665 51.5092 83.5665 48.3262 83.5665 45.1431C83.5665 41.9146 85.4308 38.6406 88.5684 37.5493C89.5233 37.231 90.4328 37.1855 91.4332 37.1855C93.7977 37.1855 96.2077 37.1855 98.5723 37.1855C102.71 37.1855 106.894 37.1855 111.032 37.1855C115.988 37.1855 120.945 37.1855 125.946 37.1855C130.721 37.1855 135.496 37.1855 140.27 37.1855C143.908 37.1855 147.546 37.1855 151.138 37.1855C152.639 37.1855 154.094 37.1855 155.594 37.1855C159.05 37.231 161.779 39.8683 162.506 43.1423C162.779 44.3701 162.733 45.6888 162.733 46.962C162.733 51.3728 162.733 55.7836 162.733 60.1944C162.733 63.5138 162.733 66.8788 162.733 70.1982C162.733 73.2449 161.187 76.246 158.323 77.5647C157.186 78.0649 156.049 78.1559 154.821 78.1559C152.138 78.1559 149.41 78.1559 146.727 78.1559C142.18 78.1559 137.678 78.1559 133.131 78.1559C128.175 78.1559 123.218 78.1559 118.262 78.1559C114.306 78.1559 110.395 78.1559 106.439 78.1559C105.302 78.1559 104.12 78.1559 102.983 78.1559C102.665 78.1559 102.028 78.0195 101.755 78.2468C101.437 78.4742 101.119 78.9289 100.846 79.2472C100.209 79.9748 99.5272 80.6568 98.8906 81.3844C97.2536 83.1578 95.6166 84.9312 93.9796 86.7501C93.1611 87.6595 92.2971 88.569 91.4786 89.4784C91.615 89.5239 91.706 89.5694 91.8424 89.6148C91.8424 86.3408 91.8424 83.1123 91.8424 79.8383C91.8424 79.3836 91.8424 78.8834 91.8424 78.4287C91.8424 78.3378 91.7515 78.2013 91.6605 78.2013C91.3422 78.2013 91.0239 78.2013 90.7056 78.2013C90.4328 78.1559 90.4328 78.5651 90.7056 78.5651Z" fill="#192244"/>
<path d="M145.545 64.9687C144.181 64.9687 142.817 64.9687 141.407 64.9687C138.088 64.9687 134.768 64.9687 131.449 64.9687C127.447 64.9687 123.446 64.9687 119.444 64.9687C115.988 64.9687 112.532 64.9687 109.076 64.9687C107.94 64.9687 106.803 64.9687 105.666 64.9687C105.12 64.9687 104.575 64.9232 104.029 64.9687C103.983 64.9687 103.983 64.9687 103.938 64.9687C103.665 64.9687 103.665 65.3779 103.938 65.3779C105.302 65.3779 106.666 65.3779 108.076 65.3779C111.395 65.3779 114.715 65.3779 118.034 65.3779C122.036 65.3779 126.037 65.3779 130.039 65.3779C133.495 65.3779 136.951 65.3779 140.407 65.3779C141.543 65.3779 142.68 65.3779 143.817 65.3779C144.363 65.3779 144.908 65.4689 145.454 65.3779C145.5 65.3779 145.5 65.3779 145.545 65.3779C145.818 65.3779 145.818 64.9687 145.545 64.9687Z" fill="#192244"/>
<path d="M145.363 51.3725C143.999 51.3725 142.635 51.3725 141.225 51.3725C137.906 51.3725 134.586 51.3725 131.267 51.3725C127.265 51.3725 123.264 51.3725 119.262 51.3725C115.806 51.3725 112.35 51.3725 108.894 51.3725C107.758 51.3725 106.621 51.3725 105.484 51.3725C104.938 51.3725 104.393 51.2815 103.847 51.3725C103.802 51.3725 103.802 51.3725 103.756 51.3725C103.483 51.3725 103.483 51.7817 103.756 51.7817C105.12 51.7817 106.484 51.7817 107.894 51.7817C111.214 51.7817 114.533 51.7817 117.852 51.7817C121.854 51.7817 125.856 51.7817 129.857 51.7817C133.313 51.7817 136.769 51.7817 140.225 51.7817C141.362 51.7817 142.498 51.7817 143.635 51.7817C144.181 51.7817 144.727 51.8726 145.272 51.7817C145.318 51.7817 145.318 51.7817 145.363 51.7817C145.636 51.7817 145.636 51.3725 145.363 51.3725Z" fill="#192244"/>
<path d="M71.2434 28.0449C72.1983 27.2719 72.6985 26.226 72.6985 24.9528C72.6985 24.4071 72.6076 23.8615 72.3802 23.3613C72.1528 22.8611 71.88 22.4518 71.5162 22.0426C71.1525 21.6788 70.6523 21.3605 70.1066 21.1786C69.5609 20.9513 68.9243 20.8603 68.2422 20.8603C67.1509 20.8603 66.196 21.0877 65.3775 21.5879C64.559 22.0881 63.786 22.7701 63.0584 23.6341L62.1035 22.8156C62.8765 21.8607 63.7405 21.0877 64.6954 20.4965C65.6503 19.9054 66.8781 19.5871 68.2877 19.5871C69.1517 19.5871 69.9702 19.7235 70.6977 19.9963C71.4253 20.2692 72.0164 20.6784 72.5166 21.1331C73.0168 21.5879 73.3806 22.179 73.6989 22.8156C73.9717 23.4522 74.1081 24.1343 74.1081 24.8619C74.1081 25.6804 73.9717 26.4534 73.6534 27.09C73.3351 27.7266 72.9259 28.2723 72.4257 28.727C71.9255 29.1817 71.3343 29.5455 70.6068 29.8183C69.9247 30.0912 69.1972 30.273 68.4241 30.364L68.1968 33.7289H67.3328L66.969 29.3636L67.1054 29.2272C68.9243 29.2272 70.2885 28.8179 71.2434 28.0449ZM66.8781 38.6399V36.3663H68.6515V38.6399H66.8781Z" fill="#192244"/>
<path d="M81.2928 29.1362C81.2473 34.6384 77.7914 39.6858 72.5621 41.5501C67.3783 43.4145 61.4669 41.823 57.9201 37.594C54.3278 33.3197 53.8731 27.09 56.7378 22.3154C59.6026 17.5863 65.2411 15.0853 70.6523 16.1767C75.9725 17.2225 80.2014 21.6333 81.1109 26.999C81.2473 27.6811 81.2928 28.4087 81.2928 29.1362C81.2928 29.4091 81.702 29.4091 81.702 29.1362C81.6565 23.4977 78.1097 18.3593 72.8349 16.3586C67.4692 14.3578 61.1941 16.0403 57.5563 20.4965C53.964 24.9073 53.4638 31.2734 56.4195 36.1389C59.3752 41.0045 65.1956 43.5964 70.7887 42.4596C76.2908 41.3682 80.7016 36.7756 81.5656 31.1825C81.6565 30.5004 81.702 29.7728 81.7475 29.0908C81.702 28.8634 81.2928 28.8634 81.2928 29.1362Z" fill="#192244"/>
<path d="M0.17052 263.5C2.03488 263.5 3.89923 263.5 5.76359 263.5C10.7655 263.5 15.7675 263.5 20.7694 263.5C28.1813 263.5 35.6388 263.5 43.0507 263.5C52.0997 263.5 61.1941 263.5 70.243 263.5C80.1105 263.5 90.0234 263.5 99.8909 263.5C109.94 263.5 119.99 263.5 130.039 263.5C139.361 263.5 148.637 263.5 157.959 263.5C165.871 263.5 173.738 263.5 181.65 263.5C187.334 263.5 193.018 263.5 198.656 263.5C201.339 263.5 204.022 263.545 206.705 263.5C206.841 263.5 206.932 263.5 207.069 263.5C207.341 263.5 207.341 263.091 207.069 263.091C205.204 263.091 203.34 263.091 201.476 263.091C196.474 263.091 191.472 263.091 186.47 263.091C179.058 263.091 171.6 263.091 164.188 263.091C155.139 263.091 146.045 263.091 136.996 263.091C127.129 263.091 117.216 263.091 107.348 263.091C97.2989 263.091 87.2496 263.091 77.2003 263.091C67.8785 263.091 58.6022 263.091 49.2804 263.091C41.3682 263.091 33.5016 263.091 25.5894 263.091C19.9054 263.091 14.2214 263.091 8.58286 263.091C5.90001 263.091 3.21715 263.045 0.534297 263.091C0.397881 263.091 0.306937 263.091 0.17052 263.091C-0.0568401 263.091 -0.0568401 263.5 0.17052 263.5Z" fill="#192244"/>
<defs>
<linearGradient id="paint0_linear" x1="150.833" y1="99.975" x2="269.446" y2="99.975" gradientUnits="userSpaceOnUse">
<stop stop-color="white"/>
<stop offset="0.1419" stop-color="#F0F1F6"/>
<stop offset="0.3584" stop-color="#E2E3EC"/>
<stop offset="0.6135" stop-color="#D9DBE7"/>
<stop offset="1" stop-color="#D6D8E5"/>
</linearGradient>
<linearGradient id="paint1_linear" x1="134.531" y1="282.019" x2="77.1699" y2="201.149" gradientUnits="userSpaceOnUse">
<stop stop-color="#FFF600"/>
<stop offset="0.2842" stop-color="#FFFA00" stop-opacity="0.7158"/>
<stop offset="1" stop-color="#FFFF00" stop-opacity="0"/>
</linearGradient>
</defs>
</svg>
