<svg width="408" height="399" viewBox="0 0 408 399" fill="none" xmlns="http://www.w3.org/2000/svg">
<path opacity="0.4" fill-rule="evenodd" clip-rule="evenodd" d="M3.72428 209.589C0.264123 169.228 22.6591 133.074 41.5704 97.2929C63.3534 56.0781 77.3132 1.3207 121.474 -13.2008C165.632 -27.7214 210.15 6.17879 250.998 28.4265C284.447 46.6443 307.78 75.2473 334.258 102.691C365.509 135.082 410.061 159.04 419.542 203.12C429.679 250.244 418.82 305.446 385.291 339.947C352.807 373.373 298.947 364.253 253.461 374.017C214.823 382.311 176.848 405.224 139.34 392.742C102.084 380.343 83.1864 341.186 59.7678 309.558C36.4751 278.101 7.07228 248.642 3.72428 209.589Z" fill="#EAEFFB"/>
</svg>
