<?xml version="1.0" encoding="utf-8"?>
<!-- Generator: Adobe Illustrator 25.0.1, SVG Export Plug-In . SVG Version: 6.00 Build 0)  -->
<svg version="1.1" id="Layer_1" xmlns="http://www.w3.org/2000/svg" xmlns:xlink="http://www.w3.org/1999/xlink" x="0px" y="0px"
	 viewBox="0 0 1200 659.6" style="enable-background:new 0 0 1200 659.6;" xml:space="preserve">
<style type="text/css">
	.st0{fill:#EAEFFB;}
</style>
<path class="st0" d="M626.5,0C384.2,0,163.9,79.5,0,209.2V640c358.7,0.4,717.3,3.6,1076-2c38,0,76,2,115-6c2.7-0.7,5.4-1.3,8-1.9
	V169.6C1042.1,63.5,843.1,0,626.5,0z"/>
<path class="st0" d="M1206.4,174.7c-2.4-1.7-4.9-3.4-7.4-5"/>
</svg>
